{
	"teaser" : {
		"teaserclasses" : "has-date",
		"img" : false,
		"icon" : false,
		"date" : true,
		"superhead" : "superhead",
		"headline" : "This is the headline text. It can contain <em>markup</em>.",
		"subhead" : "This is subheader text. It can contain <em>markup</em> as well.",
		"blurb" : "This is a longer bit of text that describes what you will read about when you follow the jump line.",
		"jumpline" : {
			"button": {
				"url" : "http://www.example.com",
				"link-text" : "Link Text For Title",
				"classes" : ""
			}
		}
	}
}