<svg id="chevron" preserveAspectRatio="xMidYMax" width="9.25" height="15.62" viewBox="0 0 9.25 15.62">
  <title>chevron</title>
  <polyline vector-effect="non-scaling-stroke" stroke-width="2pt" class="foreground" fill="none" stroke="currentColor" points="0.75 0.71 7.83 7.79 0.71 14.91"/>
</svg>
