<svg id="Layer_1" data-name="Layer 1" xmlns="http://www.w3.org/2000/svg" width="14.24" height="15.61" viewBox="0 0 14.24 15.61">
  <title>double-chevron</title>
  <polyline vector-effect="non-scaling-stroke" stroke-width="2pt" fill="none" stroke="currentColor" class="foreground"  points="0.71 0.71 7.81 7.81 0.71 14.91"/>
  <polyline vector-effect="non-scaling-stroke" stroke-width="2pt" fill="none" stroke="currentColor" class="foreground"  points="5.73 0.71 12.83 7.81 5.73 14.91"/>
</svg>
