{
	"bodyClass": "home",
	"header": {
		"title": "Welcome to Northeastern University’s College of Professional Studies!",
		"subtitle": "To get you started, we’ve put together some helpful information.",
		"background": "https://magicyeti.us/1400/357"
	}
}